Problem Set 3 - Boston
…
## # A tibble: 1 x 1
##    stat
##   <dbl>
## 1  18.5

bootstrap_distribution <- boston %>% 
  specify(response = ptratio) %>% 
  generate(reps = 1000, type="bootstrap") %>% 
  calculate(stat = "mean")
bootstrap_distribution

## # A tibble: 1,000 x 2
##    replicate  stat
##        <int> <dbl>
##  1         1  18.6
##  2         2  18.4
##  3         3  18.3
##  4         4  18.6
##  5         5  18.6
##  6         6  18.4
##  7         7  18.5
##  8         8  18.4
##  9         9  18.4
## 10        10  18.6
## #  with 990 more rows
…
