Problem Set 2 - College Admissions Data
…
lowest_gre <- admissions_data %>%
  group_by(gre) %>%
  select(gre, admit) %>%
  arrange(gre)
lowest_gre

## # A tibble: 400 x 2
## # Groups:   gre [49]
##      gre admit
##    <dbl> <dbl>
##  1   290 0.45 
##  2   290 0.47 
##  3   293 0.64 
##  4   294 0.46 
##  5   294 0.49 
##  6   295 0.46 
##  7   295 0.570
##  8   295 0.69 
##  9   295 0.47 
## 10   296 0.44 
## #  with 390 more rows

lowest_admit <- admissions_data %>%
  group_by(admit) %>%
  select(gre, admit) %>%
  arrange(admit)
lowest_admit

## # A tibble: 400 x 2
## # Groups:   admit [60]
##      gre admit
##    <dbl> <dbl>
##  1   298  0.34
##  2   297  0.34
##  3   300  0.36
##  4   303  0.36
##  5   299  0.38
##  6   304  0.38
##  7   315  0.39
##  8   311  0.42
##  9   304  0.42
## 10   299  0.42
## #  with 390 more rows
…
am_int_reg <- get_regression_table(admissions_model_interaction)
am_int_reg

## # A tibble: 4 x 7
##   term           estimate std_error statistic p_value lower_ci upper_ci
##   <chr>             <dbl>     <dbl>     <dbl>   <dbl>    <dbl>    <dbl>
## 1 intercept        -0.834     0.089     -9.33   0       -1.01    -0.658
## 2 cgpa              0.178     0.011     16.5    0        0.157    0.199
## 3 research1        -0.152     0.117     -1.30   0.193   -0.382    0.077
## 4 cgpa:research1    0.022     0.014      1.64   0.102   -0.005    0.049

am_int_points <- get_regression_points(admissions_model_interaction)
am_int_points

## # A tibble: 400 x 6
##       ID admit  cgpa research admit_hat residual
##    <int> <dbl> <dbl> <fct>        <dbl>    <dbl>
##  1     1  0.92  9.65 1            0.95    -0.03 
##  2     2  0.76  8.87 1            0.794   -0.034
##  3     3  0.72  8    1            0.619    0.101
##  4     4  0.8   8.67 1            0.754    0.046
##  5     5  0.65  8.21 0            0.629    0.021
##  6     6  0.9   9.34 1            0.888    0.012
##  7     7  0.75  8.2  1            0.659    0.091
##  8     8  0.68  7.9  0            0.574    0.106
##  9     9  0.5   8    0            0.592   -0.092
## 10    10  0.45  8.6  0            0.699   -0.249
## #  with 390 more rows
…
